Random Forest
…
Ahora se agrupa por fecha y horario

datos2<- datos1 %>%
  group_by(desc_fecha, horario, precipitaciones, temperatura_media, velocidad_viento_media, id_desc_dia_semana) %>%
  summarise(cant_accidentes=n())
datos2

## # A tibble: 4,179 x 7
## # Groups:   desc_fecha, horario, precipitaciones, temperatura_media,
## #   velocidad_viento_media [4,152]
##    desc_fecha horario precipitaciones temperatura_med velocidad_vient
##    <date>     <chr>             <dbl>            <dbl>            <dbl>
##  1 2015-01-01 madrug               0             10.3              2.5
##  2 2015-01-01 maana                0             10.3              2.5
##  3 2015-01-01 noche                 0             10.3              2.5
##  4 2015-01-01 tarde                 0             10.3              2.5
##  5 2015-01-02 maana                0             NA                2.5
##  6 2015-01-02 noche                 0             NA                2.5
##  7 2015-01-02 tarde                 0             NA                2.5
##  8 2015-01-03 madrug               0             14.4              1.4
##  9 2015-01-03 maana                0             14.4              1.4
## 10 2015-01-03 noche                 0             14.4              1.4
## #  with 4,169 more rows, and 2 more variables: id_desc_dia_semana <int>,
## #   cant_accidentes <int>
…
## The following object is masked from 'package:tidyr':
## 
##     extract

## The following object is masked from 'package:magrittr':
## 
##     extract

for(i in 1:nrow(datos2))
  {datos2$estacion <- time2season(datos2$desc_fecha, out.fmt = "seasons")
}

datos2

## # A tibble: 4,179 x 8
## # Groups:   desc_fecha, horario, precipitaciones, temperatura_media,
## #   velocidad_viento_media [4,152]
##    desc_fecha horario precipitaciones temperatura_med velocidad_vient
##    <date>     <chr>             <dbl>            <dbl>            <dbl>
##  1 2015-01-01 madrug               0             10.3              2.5
##  2 2015-01-01 maana                0             10.3              2.5
##  3 2015-01-01 noche                 0             10.3              2.5
##  4 2015-01-01 tarde                 0             10.3              2.5
##  5 2015-01-02 maana                0             NA                2.5
##  6 2015-01-02 noche                 0             NA                2.5
##  7 2015-01-02 tarde                 0             NA                2.5
##  8 2015-01-03 madrug               0             14.4              1.4
##  9 2015-01-03 maana                0             14.4              1.4
## 10 2015-01-03 noche                 0             14.4              1.4
## #  with 4,169 more rows, and 3 more variables: id_desc_dia_semana <int>,
## #   cant_accidentes <int>, estacion <chr>
…
## Warning: Unknown or uninitialised column: 'precipitacion'.

datos2

## # A tibble: 4,179 x 9
## # Groups:   desc_fecha, horario, precipitaciones, temperatura_media,
## #   velocidad_viento_media [4,152]
##    desc_fecha horario precipitaciones temperatura_med velocidad_vient
##    <date>     <chr>             <dbl>            <dbl>            <dbl>
##  1 2015-01-01 madrug               0             10.3              2.5
##  2 2015-01-01 maana                0             10.3              2.5
##  3 2015-01-01 noche                 0             10.3              2.5
##  4 2015-01-01 tarde                 0             10.3              2.5
##  5 2015-01-02 maana                0             NA                2.5
##  6 2015-01-02 noche                 0             NA                2.5
##  7 2015-01-02 tarde                 0             NA                2.5
##  8 2015-01-03 madrug               0             14.4              1.4
##  9 2015-01-03 maana                0             14.4              1.4
## 10 2015-01-03 noche                 0             14.4              1.4
## #  with 4,169 more rows, and 4 more variables: id_desc_dia_semana <int>,
## #   cant_accidentes <int>, estacion <chr>, precipitacion <chr>
…
## Warning: Unknown or uninitialised column: 'temperatura'.

datos2

## # A tibble: 4,179 x 10
## # Groups:   desc_fecha, horario, precipitaciones, temperatura_media,
## #   velocidad_viento_media [4,152]
##    desc_fecha horario precipitaciones temperatura_med velocidad_vient
##    <date>     <chr>             <dbl>            <dbl>            <dbl>
##  1 2015-01-01 madrug               0             10.3              2.5
##  2 2015-01-01 maana                0             10.3              2.5
##  3 2015-01-01 noche                 0             10.3              2.5
##  4 2015-01-01 tarde                 0             10.3              2.5
##  5 2015-01-02 maana                0             NA                2.5
##  6 2015-01-02 noche                 0             NA                2.5
##  7 2015-01-02 tarde                 0             NA                2.5
##  8 2015-01-03 madrug               0             14.4              1.4
##  9 2015-01-03 maana                0             14.4              1.4
## 10 2015-01-03 noche                 0             14.4              1.4
## #  with 4,169 more rows, and 5 more variables: id_desc_dia_semana <int>,
## #   cant_accidentes <int>, estacion <chr>, precipitacion <chr>,
## #   temperatura <chr>
…
## Warning: Unknown or uninitialised column: 'viento'.

datos2

## # A tibble: 4,179 x 11
## # Groups:   desc_fecha, horario, precipitaciones, temperatura_media,
## #   velocidad_viento_media [4,152]
##    desc_fecha horario precipitaciones temperatura_med velocidad_vient
##    <date>     <chr>             <dbl>            <dbl>            <dbl>
##  1 2015-01-01 madrug               0             10.3              2.5
##  2 2015-01-01 maana                0             10.3              2.5
##  3 2015-01-01 noche                 0             10.3              2.5
##  4 2015-01-01 tarde                 0             10.3              2.5
##  5 2015-01-02 maana                0             NA                2.5
##  6 2015-01-02 noche                 0             NA                2.5
##  7 2015-01-02 tarde                 0             NA                2.5
##  8 2015-01-03 madrug               0             14.4              1.4
##  9 2015-01-03 maana                0             14.4              1.4
## 10 2015-01-03 noche                 0             14.4              1.4
## #  with 4,169 more rows, and 6 more variables: id_desc_dia_semana <int>,
## #   cant_accidentes <int>, estacion <chr>, precipitacion <chr>,
## #   temperatura <chr>, viento <chr>
…
Partimos el dataset en 2 grupos para trabajar entrenamiento y validacin

set.seed(12)
n = nrow(datos4) 
n

## [1] 4179

frac_train <- .70
mascara <- sample(c(rep("train", 3343), rep("test", n -3343)), n)
entrevali <- split(datos4, mascara)
entrevali$train

## # A tibble: 3,343 x 8
##    desc_fecha horario cant_accidentes id_desc_dia_sem estacion
##    <date>     <fct>             <int>            <dbl> <fct>   
##  1 2015-01-01 madrug               1                4 winter  
##  2 2015-01-01 tarde                 5                4 winter  
##  3 2015-01-02 maana                5                4 winter  
##  4 2015-01-02 noche                 3                4 winter  
##  5 2015-01-02 tarde                 7                4 winter  
##  6 2015-01-03 madrug               2                1 winter  
##  7 2015-01-03 maana                6                1 winter  
##  8 2015-01-03 noche                 3                1 winter  
##  9 2015-01-03 tarde                 3                1 winter  
## 10 2015-01-04 maana                6                1 winter  
## #  with 3,333 more rows, and 3 more variables: precipitacion <fct>,
## #   temperatura <fct>, viento <fct>
…
