Random Forest
…
Agrupacin por vehiculos

datos6 <- datos5 %>%
  group_by(antiguedad_carnet, desc_tipologia, desc_marca, desc_color, desc_carnet) %>%
  summarise(cantvehiculos=n())
datos6

## # A tibble: 20,015 x 6
## # Groups:   antiguedad_carnet, desc_tipologia, desc_marca, desc_color
## #   [16,468]
##    antiguedad_carn desc_tipologia desc_marca desc_color desc_carnet
##               <int> <chr>          <chr>      <chr>      <chr>      
##  1               -1 Autobs        Desconoci Blanco     Desconocido
##  2               -1 Autobs        Desconoci Desconoci Desconocido
##  3               -1 Autobs        Desconoci Dorado     Desconocido
##  4               -1 Autobs        Desconoci Gris       Desconocido
##  5               -1 Autobs        Desconoci Rojo       Desconocido
##  6               -1 Autobs        IRISBUS    Amarillo   Desconocido
##  7               -1 Autobs        IRISBUS    Blanco     Desconocido
##  8               -1 Autobs        IRISBUS    Desconoci Desconocido
##  9               -1 Autobs        IRISBUS    Rojo       Desconocido
## 10               -1 Autobs        IVECO FIAT Blanco     Desconocido
## #  with 20,005 more rows, and 1 more variable: cantvehiculos <int>
…
Particin del dataset en 2 grupos: entrenamiento y validacin

set.seed(12)
n = nrow(datos7) 
n

## [1] 20015

frac_train <- .70
mascara <- sample(c(rep("train", 3343), rep("test", n -3343)), n)
entrevali <- split(datos7, mascara)
entrevali$train

## # A tibble: 3,343 x 6
## # Groups:   antiguedad_carnet, id_desc_tipologia, id_desc_marca,
## #   id_desc_color [3,206]
##    antiguedad_carn id_desc_tipolog id_desc_marca id_desc_color
##               <int>            <int>         <int>         <int>
##  1               -1                1             4             1
##  2               -1                1             4             2
##  3               -1                1             4             2
##  4               -1                1             4             2
##  5               -1                1             4             6
##  6               -1                1             4             8
##  7               -1                1             5            10
##  8               -1                1            11             1
##  9               -1                1            11             2
## 10               -1                1            17             5
## #  with 3,333 more rows, and 2 more variables: id_desc_carnet <int>,
## #   cantvehiculos <int>
…
## 
## Output created: Your_forest_explained.html

Resumen de veh?culos seg?n su tipolog?a

datos10<-  datos1

datos_grafico <- datos10 %>%
  group_by(desc_tipologia) %>%
  summarise(cantvehiculos=n()) %>%
  arrange(desc(cantvehiculos))
datos_grafico

## # A tibble: 21 x 2
##    desc_tipologia   cantvehiculos
##    <chr>                    <int>
##  1 Turismo                  24030
##  2 Motocicleta              18546
##  3 Furgoneta                 3749
##  4 Ciclomotor                3208
##  5 Taxi                      3046
##  6 Bicicleta                 2383
##  7 Autobs                   1625
##  8 Camin <= 3,5 Tm           878
##  9 Camin > 3,5 Tm            394
## 10 Todo terreno               147
## #  with 11 more rows

library(knitr)
datos_grafico

## # A tibble: 21 x 2
##    desc_tipologia   cantvehiculos
##    <chr>                    <int>
##  1 Turismo                  24030
##  2 Motocicleta              18546
##  3 Furgoneta                 3749
##  4 Ciclomotor                3208
##  5 Taxi                      3046
##  6 Bicicleta                 2383
##  7 Autobs                   1625
##  8 Camin <= 3,5 Tm           878
##  9 Camin > 3,5 Tm            394
## 10 Todo terreno               147
## #  with 11 more rows
…
