Accidentes - Random Forest
…
Ahora agrupo:

En este caso quiero determinar el peso que tienen las variables epoca del ao, da de la semana, tipologa y si era de da, tarde, noche o madrugada sobre que un vehculo se vea involucrado en un accidente

datos2<- datos1 %>%
  group_by(desc_distrito, desc_tipologia, horario, id_desc_dia_semana) %>%
  summarise(cant_tipologias_distrito=n())
datos2

## # A tibble: 1,952 x 5
## # Groups:   desc_distrito, desc_tipologia, horario [485]
##    desc_distrito desc_tipologia horario  id_desc_dia_sem cant_tipologias_
##    <chr>         <chr>          <chr>               <dbl>             <int>
##  1 Ciutat Vella  Alcance        madruga                1                 8
##  2 Ciutat Vella  Alcance        madruga                2                 7
##  3 Ciutat Vella  Alcance        madruga                3                 2
##  4 Ciutat Vella  Alcance        madruga                4                 8
##  5 Ciutat Vella  Alcance        madruga                6                10
##  6 Ciutat Vella  Alcance        maana                  1                 5
##  7 Ciutat Vella  Alcance        maana                  2                 5
##  8 Ciutat Vella  Alcance        maana                  3                13
##  9 Ciutat Vella  Alcance        maana                  4                27
## 10 Ciutat Vella  Alcance        maana                  6                28
## #  with 1,942 more rows
…
